{
    "KPlugin": {
        "Authors": [
            {
                "Email": "notmart@gmail.com",
                "Name": "Marco Martin"
            }
        ],
        "Id": "KWin/WindowSwitcher",
        "Name": "KWin Window Switcher",
        "ServiceTypes": [
            "KPackage/PackageStructure"
        ],
        "Version": "1"
    }
}
